arcsin_tb.vcd
$date
	Sun Jul 02 21:33:38 2023
$end
$version
	Icarus Verilog
$end
$timescale
	1ps
$end
$scope module arcsin_tb $end
$var wire 32 ! xita [31:0] $end
$var wire 1 " valid $end
$var reg 1 # clk $end
$var reg 1 $ rst_n $end
$var reg 32 % value_sin [31:0] $end
$scope module arcsin_dut $end
$var wire 1 # clk $end
$var wire 1 $ rst_n $end
$var wire 32 & value_sin [31:0] $end
$var wire 32 ' xita_sharp [31:0] $end
$var wire 1 ( valid_sqrt $end
$var wire 1 ) valid_div $end
$var wire 1 * valid_arctan $end
$var wire 32 + radian_tan [31:0] $end
$var wire 32 , radian_2 [31:0] $end
$var wire 32 - radian [31:0] $end
$var wire 32 . one_rad [31:0] $end
$var wire 32 / den [31:0] $end
$var reg 32 0 den_reg [31:0] $end
$var reg 32 1 radian_reg [31:0] $end
$var reg 32 2 radian_tan_reg [31:0] $end
$var reg 1 " valid $end
$var reg 1 3 valid_arctan_prev $end
$var reg 1 4 valid_div_prev $end
$var reg 1 5 valid_sqrt_prev $end
$var reg 32 6 value_sin_reg [31:0] $end
$var reg 32 7 xita [31:0] $end
$scope module arctan_dut $end
$var wire 1 # clk $end
$var wire 1 $ rst_n $end
$var wire 32 8 tan [31:0] $end
$var wire 32 9 xita_c [31:0] $end
$var wire 1 : valid_div $end
$var wire 32 ; tan_c [31:0] $end
$var wire 32 < tan_abs [31:0] $end
$var parameter 32 = K $end
$var reg 2 > cnt [1:0] $end
$var reg 32 ? tan_abs_reg [31:0] $end
$var reg 1 * valid $end
$var reg 32 @ x [31:0] $end
$var reg 32 A xita [31:0] $end
$var reg 32 B y [31:0] $end
$var reg 32 C z [31:0] $end
$var integer 32 D i [31:0] $end
$scope module qdiv_dut $end
$var wire 1 # clk $end
$var wire 32 E dividend [31:0] $end
$var wire 32 F divisor [31:0] $end
$var wire 1 $ rst_n $end
$var parameter 32 G FBITS $end
$var parameter 32 H WIDTH $end
$var reg 32 I acc [31:0] $end
$var reg 32 J acc_next [31:0] $end
$var reg 1 K busy $end
$var reg 31 L dividend_reg [30:0] $end
$var reg 31 M divisor_reg [30:0] $end
$var reg 31 N quo [30:0] $end
$var reg 31 O quo_next [30:0] $end
$var reg 32 P quotient [31:0] $end
$var reg 1 : valid $end
$var reg 1 Q warn $end
$var integer 32 R i [31:0] $end
$upscope $end
$scope module xita_tan_lut_dut $end
$var wire 1 # clk $end
$var wire 5 S i [4:0] $end
$var reg 32 T xita [31:0] $end
$upscope $end
$upscope $end
$scope module qadd_dut $end
$var wire 32 U add1 [31:0] $end
$var wire 32 V add2 [31:0] $end
$var wire 32 W sum [31:0] $end
$var reg 32 X res [31:0] $end
$upscope $end
$scope module qdiv_dut $end
$var wire 1 # clk $end
$var wire 32 Y dividend [31:0] $end
$var wire 32 Z divisor [31:0] $end
$var wire 1 $ rst_n $end
$var parameter 32 [ FBITS $end
$var parameter 32 \ WIDTH $end
$var reg 32 ] acc [31:0] $end
$var reg 32 ^ acc_next [31:0] $end
$var reg 1 _ busy $end
$var reg 31 ` dividend_reg [30:0] $end
$var reg 31 a divisor_reg [30:0] $end
$var reg 31 b quo [30:0] $end
$var reg 31 c quo_next [30:0] $end
$var reg 32 d quotient [31:0] $end
$var reg 1 ) valid $end
$var reg 1 e warn $end
$var integer 32 f i [31:0] $end
$upscope $end
$scope module qmulti_dut1 $end
$var wire 32 g multi1 [31:0] $end
$var wire 32 h multi2 [31:0] $end
$var wire 32 i result [31:0] $end
$var reg 32 j result_out [31:0] $end
$var reg 64 k tmp [63:0] $end
$upscope $end
$scope module sqrt_dut $end
$var wire 1 # clk $end
$var wire 32 l iter [31:0] $end
$var wire 1 $ rst_n $end
$var wire 32 m sqrter [31:0] $end
$var wire 1 n valid_dived $end
$var wire 32 o sum [31:0] $end
$var wire 32 p iter_next [31:0] $end
$var wire 32 q dived [31:0] $end
$var reg 32 r iter_reg [31:0] $end
$var reg 32 s sqrted [31:0] $end
$var reg 32 t sqrter_reg [31:0] $end
$var reg 1 ( valid $end
$var integer 32 u i [31:0] $end
$scope module qadd_dut $end
$var wire 32 v add2 [31:0] $end
$var wire 32 w sum [31:0] $end
$var wire 32 x add1 [31:0] $end
$var reg 32 y res [31:0] $end
$upscope $end
$scope module qdiv_dut1 $end
$var wire 1 # clk $end
$var wire 32 z dividend [31:0] $end
$var wire 32 { divisor [31:0] $end
$var wire 1 $ rst_n $end
$var parameter 32 | FBITS $end
$var parameter 32 } WIDTH $end
$var reg 32 ~ acc [31:0] $end
$var reg 32 !" acc_next [31:0] $end
$var reg 1 "" busy $end
$var reg 31 #" dividend_reg [30:0] $end
$var reg 31 $" divisor_reg [30:0] $end
$var reg 31 %" quo [30:0] $end
$var reg 31 &" quo_next [30:0] $end
$var reg 32 '" quotient [31:0] $end
$var reg 1 n valid $end
$var reg 1 (" warn $end
$var integer 32 )" i [31:0] $end
$upscope $end
$upscope $end
$upscope $end
$upscope $end
$enddefinitions $end
$comment Show the parameter values. $end
$dumpall
b11111 }
b10000 |
b11111 \
b10000 [
b11111 H
b10000 G
b1001101101110100 =
$end
#0
$dumpvars
b0 )"
x("
bx '"
bx &"
bx %"
bx $"
bx #"
x""
bx !"
bx ~
bx {
b10000000000000000 z
b0 y
bx x
b0 w
bx v
b0 u
bx t
bx s
bx r
bx q
b0 p
b0 o
xn
b10000000000000000 m
bx l
b0 k
b0 j
b0 i
bx h
bx g
b0 f
xe
bx d
bx c
bx b
bx a
bx `
x_
bx ^
bx ]
bx Z
bx Y
b10000000000000000 X
b10000000000000000 W
b10000000000000000000000000000000 V
b10000000000000000 U
bx T
b0 S
b0 R
xQ
bx P
bx O
bx N
bx M
bx L
xK
bx J
bx I
bx F
bx E
b0 D
bx C
bx B
bx A
bx @
bx ?
bx >
b0xxxxxxxxxxxxxxxxxxxxxxxxxxxxxxx <
bx ;
x:
bx 9
bx 8
bx 7
bx 6
x5
x4
x3
bx 2
bx 1
bx 0
bx /
b10000000000000000 .
bx -
b0 ,
bx +
x*
x)
x(
bx '
bx &
bx %
1$
0#
x"
bx !
$end
#1000
1#
#2000
b1 )"
b10000000000000000 #"
b10000000000000000 t
b1 f
b1 R
b0 >
b0xxxxxxxxxxxxxxxxxxxxxxxxxxxxxxx ?
b1011010000000000000000 9
b1011010000000000000000 T
0#
#3000
1#
#4000
b10 R
b10 f
b10 )"
0#
#5000
1#
#6000
b11 )"
b11 f
b11 R
0#
#7000
1#
#8000
b100 R
b100 f
b100 )"
0#
#9000
1#
#10000
b1 &"
b0 !"
b1 c
b0 ^
b1 O
b0 J
b0 <
b0 -
b0 g
b0 h
b0 %"
b0 ~
0("
0n
b0 q
b0 x
b0 '"
b0 $"
b0 #"
0(
b0 /
b0 s
b0 t
b0 b
b0 ]
0e
0)
b0 +
b0 d
b0 a
b0 `
b0 N
b0 I
0Q
0:
b0 ;
b0 P
b0 M
b0 L
0*
b0 C
b0 B
b0 E
b1001101101110100 @
b1001101101110100 F
03
04
05
b0 1
b0 Y
b0 2
b0 8
b0 0
b0 Z
b0 6
0"
0#
0$
#11000
1#
#12000
0#
#13000
1#
#14000
0#
#15000
1#
#16000
0#
#17000
1#
#18000
0#
#19000
1#
#20000
b1000000000000000 p
b0 O
b10000000000000000 o
b10000000000000000 w
b10000000000000000 y
b1000000000000000000 &"
b0 ?
1K
b0 R
b1001101101110100 M
0_
1e
b10000000000000000 l
b10000000000000000 v
b10000000000000000 {
b10000000000000000 r
b10000000000000000 t
1""
b100000000000000000 %"
b0 )"
bx $"
b10000000000000000 #"
0#
b0 %
b0 &
1$
#21000
1#
#22000
b10000000000000000000 &"
b1000000000000000000 %"
b1 )"
b10000000000000000 $"
b1 R
0#
#23000
1#
#24000
b100000000000000000000 &"
b10 R
b10000000000000000000 %"
b10 )"
0#
#25000
1#
#26000
b1000000000000000000000 &"
b100000000000000000000 %"
b11 )"
b11 R
0#
#27000
1#
#28000
b10000000000000000000000 &"
b100 R
b1000000000000000000000 %"
b100 )"
0#
#29000
1#
#30000
b100000000000000000000000 &"
b10000000000000000000000 %"
b101 )"
b101 R
0#
#31000
1#
#32000
b1000000000000000000000000 &"
b110 R
b100000000000000000000000 %"
b110 )"
0#
#33000
1#
#34000
b10000000000000000000000000 &"
b1000000000000000000000000 %"
b111 )"
b111 R
0#
#35000
1#
#36000
b100000000000000000000000000 &"
b1000 R
b10000000000000000000000000 %"
b1000 )"
0#
#37000
1#
#38000
b1000000000000000000000000000 &"
b100000000000000000000000000 %"
b1001 )"
b1001 R
0#
#39000
1#
#40000
b10000000000000000000000000000 &"
b1010 R
b1000000000000000000000000000 %"
b1010 )"
0#
#41000
1#
#42000
b100000000000000000000000000000 &"
b10000000000000000000000000000 %"
b1011 )"
b1011 R
0#
#43000
1#
#44000
b1000000000000000000000000000000 &"
b1100 R
b100000000000000000000000000000 %"
b1100 )"
0#
#45000
1#
#46000
b1 !"
b0 &"
b1000000000000000000000000000000 %"
b1101 )"
b1101 R
0#
#47000
1#
#48000
b10 !"
b1110 R
b1 ~
b0 %"
b1110 )"
0#
#49000
1#
#50000
b100 !"
b10 ~
b1111 )"
b1111 R
0#
#51000
1#
#52000
b1000 !"
b10000 R
b100 ~
b10000 )"
0#
#53000
1#
#54000
b10000 !"
b1000 ~
b10001 )"
b10001 R
0#
#55000
1#
#56000
b100000 !"
b10010 R
b10000 ~
b10010 )"
0#
#57000
1#
#58000
b1000000 !"
b100000 ~
b10011 )"
b10011 R
0#
#59000
1#
#60000
b10000000 !"
b10100 R
b1000000 ~
b10100 )"
0#
#61000
1#
#62000
b100000000 !"
b10000000 ~
b10101 )"
b10101 R
0#
#63000
1#
#64000
b1000000000 !"
b10110 R
b100000000 ~
b10110 )"
0#
#65000
1#
#66000
b10000000000 !"
b1000000000 ~
b10111 )"
b10111 R
0#
#67000
1#
#68000
b100000000000 !"
b11000 R
b10000000000 ~
b11000 )"
0#
#69000
1#
#70000
b1000000000000 !"
b100000000000 ~
b11001 )"
b11001 R
0#
#71000
1#
#72000
b10000000000000 !"
b11010 R
b1000000000000 ~
b11010 )"
0#
#73000
1#
#74000
b100000000000000 !"
b10000000000000 ~
b11011 )"
b11011 R
0#
#75000
1#
#76000
b1000000000000000 !"
b11100 R
b100000000000000 ~
b11100 )"
0#
#77000
1#
#78000
b10000000000000000 !"
b1000000000000000 ~
b11101 )"
b11101 R
0#
#79000
1#
#80000
b1 &"
b0 !"
b11110 R
b10000000000000000 ~
b11110 )"
0#
#81000
1#
#82000
b10 &"
b0 ~
b1 %"
b11111 )"
b11111 R
0#
#83000
1#
#84000
b100 &"
b100000 R
b10 %"
b100000 )"
0#
#85000
1#
#86000
b1000 &"
b100 %"
b100001 )"
b100001 R
0#
#87000
1#
#88000
b10000 &"
b100010 R
b1000 %"
b100010 )"
0#
#89000
1#
#90000
b100000 &"
b10000 %"
b100011 )"
b100011 R
0#
#91000
1#
#92000
b1000000 &"
b100100 R
b100000 %"
b100100 )"
0#
#93000
1#
#94000
b10000000 &"
b1000000 %"
b100101 )"
b100101 R
0#
#95000
1#
#96000
b100000000 &"
b100110 R
b10000000 %"
b100110 )"
0#
#97000
1#
#98000
b1000000000 &"
b100000000 %"
b100111 )"
b100111 R
0#
#99000
1#
#100000
b10000000000 &"
b101000 R
b1000000000 %"
b101000 )"
0#
#101000
1#
#102000
b100000000000 &"
b10000000000 %"
b101001 )"
b101001 R
0#
#103000
1#
#104000
b1000000000000 &"
b101010 R
b100000000000 %"
b101010 )"
0#
#105000
1#
#106000
b10000000000000 &"
b1000000000000 %"
b101011 )"
b101011 R
0#
#107000
1#
#108000
b100000000000000 &"
b101100 R
b10000000000000 %"
b101100 )"
0#
#109000
1#
#110000
b1000000000000000 &"
b100000000000000 %"
b101101 )"
b101101 R
0#
#111000
1#
#112000
b10000000000000000 &"
b101110 R
b1000000000000000 %"
b101110 )"
0#
#113000
1#
#114000
b10000000000000000 p
b100000000000000000 o
b100000000000000000 w
b100000000000000000 y
0""
b10000000000000000 q
b10000000000000000 x
b10000000000000000 '"
1n
0K
1:
0#
#115000
1#
#116000
b1 >
b1 u
0#
#117000
1#
#118000
b10 u
b10 >
0#
#119000
1#
#120000
b1 S
b1 D
b11 >
b11 u
0#
#121000
1#
#122000
b100 u
b0 >
b110101001000010100111 9
b110101001000010100111 T
0#
#123000
1#
#124000
b1 >
b101 u
0#
#125000
1#
#126000
b110 u
b10 >
0#
#127000
1#
#128000
b10 S
b10 D
b11 >
b111 u
0#
#129000
1#
#130000
b1000 u
b0 >
b11100000100101000111 9
b11100000100101000111 T
0#
#131000
1#
#132000
b1 >
b1001 u
0#
#133000
1#
#134000
b1010 u
b10 >
0#
#135000
1#
#136000
b11 S
b11 D
b11 >
b1011 u
0#
#137000
1#
#138000
b1100 u
b0 >
b1110010000000000001 9
b1110010000000000001 T
0#
#139000
1#
#140000
b1 >
b1101 u
0#
#141000
1#
#142000
b1110 u
b10 >
0#
#143000
1#
#144000
b100 S
b100 D
b11 >
b1111 u
0#
#145000
1#
#146000
b10000 u
b0 >
b111001001110001010 9
b111001001110001010 T
0#
#147000
1#
#148000
b1 >
b10001 u
0#
#149000
1#
#150000
b10010 u
b10 >
0#
#151000
1#
#152000
b101 S
b101 D
b11 >
b10011 u
0#
#153000
1#
#154000
b10100 u
b0 >
b11100101000110111 9
b11100101000110111 T
0#
#155000
1#
#156000
b1 >
b10101 u
0#
#157000
1#
#158000
1(
b10000000000000000 /
b10000000000000000 s
b10 >
0#
#159000
1#
#160000
b110 S
b10000000000000000 0
b10000000000000000 Z
15
b110 D
b11 >
0#
#161000
1#
#162000
b0 c
1_
b0 f
b10000000000000000 a
b0 >
b1110010100101010 9
b1110010100101010 T
0#
#163000
1#
#164000
b1 >
b1 f
0#
#165000
1#
#166000
b10 f
b10 >
0#
#167000
1#
#168000
b111 S
b111 D
b11 >
b11 f
0#
#169000
1#
#170000
b100 f
b0 >
b111001010010110 9
b111001010010110 T
0#
#171000
1#
#172000
b1 >
b101 f
0#
#173000
1#
#174000
b110 f
b10 >
0#
#175000
1#
#176000
b1000 S
b1000 D
b11 >
b111 f
0#
#177000
1#
#178000
b1000 f
b0 >
b11100101001011 9
b11100101001011 T
0#
#179000
1#
#180000
b1 >
b1001 f
0#
#181000
1#
#182000
b1010 f
b10 >
0#
#183000
1#
#184000
b1001 S
b1001 D
b11 >
b1011 f
0#
#185000
1#
#186000
b1100 f
b0 >
b1110010100101 9
b1110010100101 T
0#
#187000
1#
#188000
b1 >
b1101 f
0#
#189000
1#
#190000
b1110 f
b10 >
0#
#191000
1#
#192000
b1010 S
b1010 D
b11 >
b1111 f
0#
#193000
1#
#194000
b10000 f
b0 >
b111001010010 9
b111001010010 T
0#
#195000
1#
#196000
b1 >
b10001 f
0#
#197000
1#
#198000
b10010 f
b10 >
0#
#199000
1#
#200000
b1011 S
b1011 D
b11 >
b10011 f
0#
#201000
1#
#202000
b10100 f
b0 >
b11100101001 9
b11100101001 T
0#
#203000
1#
#204000
b1 >
b10101 f
0#
#205000
1#
#206000
b10110 f
b10 >
0#
#207000
1#
#208000
b1100 S
b1100 D
b11 >
b10111 f
0#
#209000
1#
#210000
b11000 f
b0 >
b1110010100 9
b1110010100 T
0#
#211000
1#
#212000
b1 >
b11001 f
0#
#213000
1#
#214000
b11010 f
b10 >
0#
#215000
1#
#216000
b1101 S
b1101 D
b11 >
b11011 f
0#
#217000
1#
#218000
b11100 f
b0 >
b111001010 9
b111001010 T
0#
#219000
1#
#220000
b1 >
b11101 f
0#
#221000
1#
#222000
b11110 f
b10 >
0#
#223000
1#
#224000
b1110 S
b1110 D
b11 >
b11111 f
0#
#225000
1#
#226000
b100000 f
b0 >
b11100101 9
b11100101 T
0#
#227000
1#
#228000
b1 >
b100001 f
0#
#229000
1#
#230000
b100010 f
b10 >
0#
#231000
1#
#232000
b1111 S
b1111 D
b11 >
b100011 f
0#
#233000
1#
#234000
b100100 f
b0 >
b1110010 9
b1110010 T
0#
#235000
1#
#236000
b1 >
b100101 f
0#
#237000
1#
#238000
b100110 f
b10 >
0#
#239000
1#
#240000
b10000 S
b10000 D
b11 >
b100111 f
0#
#241000
1#
#242000
b101000 f
b0 >
b111001 9
b111001 T
0#
#243000
1#
#244000
b1 >
b101001 f
0#
#245000
1#
#246000
b101010 f
b10 >
0#
#247000
1#
#248000
b10001 S
b10001 D
b11 >
b101011 f
0#
#249000
1#
#250000
b101100 f
b0 >
b11100 9
b11100 T
0#
#251000
1#
#252000
b1 >
b101101 f
0#
#253000
1#
#254000
b101110 f
b10 >
0#
#255000
1#
#256000
b10010 S
b10010 D
b11 >
0_
1)
0#
#257000
1#
#258000
b0 >
14
b1110 9
b1110 T
0#
#259000
1#
#260000
b1 >
0#
#261000
1#
#262000
b10 >
0#
#263000
1#
#264000
b10011 S
b10011 D
b11 >
0#
#265000
1#
#266000
b0 >
b111 9
b111 T
0#
#267000
1#
#268000
b1 >
0#
#269000
1#
#270000
b10 >
0#
#271000
1#
#272000
b10100 S
b10100 D
b11 >
0#
#273000
1#
#274000
b0 '
b0 A
1*
b0 >
b100 9
b100 T
0#
#275000
1#
#276000
b0 !
b0 7
1"
13
0#
