arcsin_tb.vcd
$date
	Tue Jul 04 10:53:43 2023
$end
$version
	Icarus Verilog
$end
$timescale
	1ps
$end
$scope module arcsin_tb $end
$var wire 32 ! xita [31:0] $end
$var wire 1 " valid $end
$var reg 1 # clk $end
$var reg 1 $ rst_n $end
$var reg 32 % value_sin [31:0] $end
$scope module arcsin_dut $end
$var wire 1 # clk $end
$var wire 1 $ rst_n $end
$var wire 32 & value_sin [31:0] $end
$var wire 32 ' xita_sharp [31:0] $end
$var wire 1 ( valid_sqrt $end
$var wire 1 ) valid_div $end
$var wire 1 * valid_arctan $end
$var wire 32 + radian_tan [31:0] $end
$var wire 32 , radian_2 [31:0] $end
$var wire 32 - radian [31:0] $end
$var wire 32 . one_rad [31:0] $end
$var wire 32 / den [31:0] $end
$var reg 32 0 den_reg [31:0] $end
$var reg 32 1 radian_reg [31:0] $end
$var reg 32 2 radian_tan_reg [31:0] $end
$var reg 1 " valid $end
$var reg 1 3 valid_arctan_prev $end
$var reg 1 4 valid_div_prev $end
$var reg 1 5 valid_sqrt_prev $end
$var reg 32 6 value_sin_reg [31:0] $end
$var reg 32 7 xita [31:0] $end
$scope module arctan_dut $end
$var wire 1 # clk $end
$var wire 1 $ rst_n $end
$var wire 32 8 tan [31:0] $end
$var wire 32 9 xita_c [31:0] $end
$var wire 1 : valid_div $end
$var wire 32 ; tan_c [31:0] $end
$var wire 32 < tan_abs [31:0] $end
$var parameter 32 = K $end
$var reg 2 > cnt [1:0] $end
$var reg 32 ? tan_abs_reg [31:0] $end
$var reg 1 * valid $end
$var reg 32 @ x [31:0] $end
$var reg 32 A xita [31:0] $end
$var reg 32 B y [31:0] $end
$var reg 32 C z [31:0] $end
$var integer 32 D i [31:0] $end
$scope module qdiv_dut $end
$var wire 1 # clk $end
$var wire 32 E dividend [31:0] $end
$var wire 32 F divisor [31:0] $end
$var wire 1 $ rst_n $end
$var wire 31 G divisor_unsigned [30:0] $end
$var wire 31 H dividend_unsigned [30:0] $end
$var parameter 32 I FBITS $end
$var parameter 32 J WIDTH $end
$var reg 32 K acc [31:0] $end
$var reg 32 L acc_next [31:0] $end
$var reg 1 M busy $end
$var reg 31 N dividend_reg [30:0] $end
$var reg 31 O divisor_reg [30:0] $end
$var reg 31 P quo [30:0] $end
$var reg 31 Q quo_next [30:0] $end
$var reg 32 R quotient [31:0] $end
$var reg 1 : valid $end
$var reg 1 S warn $end
$var integer 32 T i [31:0] $end
$upscope $end
$scope module xita_tan_lut_dut $end
$var wire 1 # clk $end
$var wire 5 U i [4:0] $end
$var reg 32 V xita [31:0] $end
$upscope $end
$upscope $end
$scope module qadd_dut $end
$var wire 32 W add1 [31:0] $end
$var wire 32 X add2 [31:0] $end
$var wire 32 Y sum [31:0] $end
$var reg 32 Z res [31:0] $end
$upscope $end
$scope module qdiv_dut $end
$var wire 1 # clk $end
$var wire 32 [ dividend [31:0] $end
$var wire 32 \ divisor [31:0] $end
$var wire 1 $ rst_n $end
$var wire 31 ] divisor_unsigned [30:0] $end
$var wire 31 ^ dividend_unsigned [30:0] $end
$var parameter 32 _ FBITS $end
$var parameter 32 ` WIDTH $end
$var reg 32 a acc [31:0] $end
$var reg 32 b acc_next [31:0] $end
$var reg 1 c busy $end
$var reg 31 d dividend_reg [30:0] $end
$var reg 31 e divisor_reg [30:0] $end
$var reg 31 f quo [30:0] $end
$var reg 31 g quo_next [30:0] $end
$var reg 32 h quotient [31:0] $end
$var reg 1 ) valid $end
$var reg 1 i warn $end
$var integer 32 j i [31:0] $end
$upscope $end
$scope module qmulti_dut1 $end
$var wire 32 k multi1 [31:0] $end
$var wire 32 l multi2 [31:0] $end
$var wire 32 m result [31:0] $end
$var reg 32 n result_out [31:0] $end
$var reg 64 o tmp [63:0] $end
$upscope $end
$scope module sqrt_dut $end
$var wire 1 # clk $end
$var wire 1 $ rst_n $end
$var wire 32 p sqrter [31:0] $end
$var wire 1 q valid_dived $end
$var wire 32 r sum [31:0] $end
$var wire 32 s iter_next [31:0] $end
$var wire 32 t iter [31:0] $end
$var wire 32 u dived [31:0] $end
$var reg 32 v iter_reg [31:0] $end
$var reg 32 w sqrted [31:0] $end
$var reg 32 x sqrter_reg [31:0] $end
$var reg 1 ( valid $end
$var integer 32 y i [31:0] $end
$scope module qadd_dut $end
$var wire 32 z add2 [31:0] $end
$var wire 32 { sum [31:0] $end
$var wire 32 | add1 [31:0] $end
$var reg 32 } res [31:0] $end
$upscope $end
$scope module qdiv_dut1 $end
$var wire 1 # clk $end
$var wire 32 ~ dividend [31:0] $end
$var wire 32 !" divisor [31:0] $end
$var wire 1 $ rst_n $end
$var wire 31 "" divisor_unsigned [30:0] $end
$var wire 31 #" dividend_unsigned [30:0] $end
$var parameter 32 $" FBITS $end
$var parameter 32 %" WIDTH $end
$var reg 32 &" acc [31:0] $end
$var reg 32 '" acc_next [31:0] $end
$var reg 1 (" busy $end
$var reg 31 )" dividend_reg [30:0] $end
$var reg 31 *" divisor_reg [30:0] $end
$var reg 31 +" quo [30:0] $end
$var reg 31 ," quo_next [30:0] $end
$var reg 32 -" quotient [31:0] $end
$var reg 1 q valid $end
$var reg 1 ." warn $end
$var integer 32 /" i [31:0] $end
$upscope $end
$upscope $end
$upscope $end
$upscope $end
$enddefinitions $end
$comment Show the parameter values. $end
$dumpall
b11111 %"
b10000 $"
b11111 `
b10000 _
b11111 J
b10000 I
b1001101101110100 =
$end
#0
$dumpvars
b0 /"
x."
bx -"
bx ,"
bx +"
bx *"
bx )"
x("
bx '"
bx &"
b10000000000000000 #"
bx ""
bx !"
b10000000000000000 ~
b0 }
bx |
b0 {
bx z
b0 y
bx x
bx w
bx v
bx u
bx t
b0 s
b0 r
xq
b10000000000000000 p
b0 o
b0 n
b0 m
bx l
bx k
b0 j
xi
bx h
bx g
bx f
bx e
bx d
xc
bx b
bx a
bx ^
bx ]
bx \
bx [
b10000000000000000 Z
b10000000000000000 Y
b10000000000000000000000000000000 X
b10000000000000000 W
bx V
b0 U
b0 T
xS
bx R
bx Q
bx P
bx O
bx N
xM
bx L
bx K
bx H
bx G
bx F
bx E
b0 D
bx C
bx B
bx A
bx @
bx ?
bx >
b0xxxxxxxxxxxxxxxxxxxxxxxxxxxxxxx <
bx ;
x:
bx 9
bx 8
bx 7
bx 6
x5
x4
x3
bx 2
bx 1
bx 0
bx /
b10000000000000000 .
bx -
b0 ,
bx +
x*
x)
x(
bx '
bx &
bx %
1$
0#
x"
bx !
$end
#1000
b1 /"
b10000000000000000 )"
b10000000000000000 x
b1 j
b1 T
b0 >
b0xxxxxxxxxxxxxxxxxxxxxxxxxxxxxxx ?
b1011010000000000000000 9
b1011010000000000000000 V
1#
#2000
0#
#3000
b10 T
b10 j
b10 /"
1#
#4000
0#
#5000
b11 /"
b11 j
b11 T
1#
#6000
0#
#7000
b100 T
b100 j
b100 /"
1#
#8000
0#
#9000
b101 /"
b101 j
b101 T
1#
#10000
b0 ^
b0 <
b0 ]
b0 -
b0 k
b0 l
b0 H
b1001101101110100 G
b1 Q
b0 L
b1 g
b0 b
b0 ""
b1 ,"
b0 '"
03
04
05
b0 1
b0 [
b0 2
b0 8
b0 0
b0 \
b0 6
0"
b0 '
b0 A
b0 ?
0*
b0 C
b0 B
b0 E
b1001101101110100 @
b1001101101110100 F
0M
b0 P
b0 K
0S
0:
b0 ;
b0 R
b0 O
b0 N
0c
b0 f
b0 a
0i
0)
b0 +
b0 h
b0 e
b0 d
b0 t
b0 v
b0 z
b0 !"
0(
b0 /
b0 w
b0 x
0("
b0 +"
b0 &"
0."
0q
b0 u
b0 |
b0 -"
b0 *"
b0 )"
0#
0$
#11000
1#
#12000
0#
#13000
1#
#14000
0#
#15000
1#
#16000
0#
#17000
1#
#18000
0#
#19000
1#
#20000
0#
b0 %
b0 &
1$
#21000
b1000000000000000 s
b0 Q
b10000000000000000 r
b10000000000000000 {
b10000000000000000 }
b10000000000000000 ""
1M
b0 T
b1001101101110100 O
1i
b10000000000000000 t
b10000000000000000 v
b10000000000000000 z
b10000000000000000 !"
b10000000000000000 x
1."
1#
#22000
0#
#23000
b1000000000000000000 ,"
1("
b100000000000000000 +"
b0 /"
b10000000000000000 *"
b10000000000000000 )"
b1 T
1#
#24000
0#
#25000
b10000000000000000000 ,"
b10 T
b1000000000000000000 +"
b1 /"
1#
#26000
0#
#27000
b100000000000000000000 ,"
b10000000000000000000 +"
b10 /"
b11 T
1#
#28000
0#
#29000
b1000000000000000000000 ,"
b100 T
b100000000000000000000 +"
b11 /"
1#
#30000
0#
#31000
b10000000000000000000000 ,"
b1000000000000000000000 +"
b100 /"
b101 T
1#
#32000
0#
#33000
b100000000000000000000000 ,"
b110 T
b10000000000000000000000 +"
b101 /"
1#
#34000
0#
#35000
b1000000000000000000000000 ,"
b100000000000000000000000 +"
b110 /"
b111 T
1#
#36000
0#
#37000
b10000000000000000000000000 ,"
b1000 T
b1000000000000000000000000 +"
b111 /"
1#
#38000
0#
#39000
b100000000000000000000000000 ,"
b10000000000000000000000000 +"
b1000 /"
b1001 T
1#
#40000
0#
#41000
b1000000000000000000000000000 ,"
b1010 T
b100000000000000000000000000 +"
b1001 /"
1#
#42000
0#
#43000
b10000000000000000000000000000 ,"
b1000000000000000000000000000 +"
b1010 /"
b1011 T
1#
#44000
0#
#45000
b100000000000000000000000000000 ,"
b1100 T
b10000000000000000000000000000 +"
b1011 /"
1#
#46000
0#
#47000
b1000000000000000000000000000000 ,"
b100000000000000000000000000000 +"
b1100 /"
b1101 T
1#
#48000
0#
#49000
b1 '"
b0 ,"
b1110 T
b1000000000000000000000000000000 +"
b1101 /"
1#
#50000
0#
#51000
b10 '"
b1 &"
b0 +"
b1110 /"
b1111 T
1#
#52000
0#
#53000
b100 '"
b10000 T
b10 &"
b1111 /"
1#
#54000
0#
#55000
b1000 '"
b100 &"
b10000 /"
b10001 T
1#
#56000
0#
#57000
b10000 '"
b10010 T
b1000 &"
b10001 /"
1#
#58000
0#
#59000
b100000 '"
b10000 &"
b10010 /"
b10011 T
1#
#60000
0#
#61000
b1000000 '"
b10100 T
b100000 &"
b10011 /"
1#
#62000
0#
#63000
b10000000 '"
b1000000 &"
b10100 /"
b10101 T
1#
#64000
0#
#65000
b100000000 '"
b10110 T
b10000000 &"
b10101 /"
1#
#66000
0#
#67000
b1000000000 '"
b100000000 &"
b10110 /"
b10111 T
1#
#68000
0#
#69000
b10000000000 '"
b11000 T
b1000000000 &"
b10111 /"
1#
#70000
0#
#71000
b100000000000 '"
b10000000000 &"
b11000 /"
b11001 T
1#
#72000
0#
#73000
b1000000000000 '"
b11010 T
b100000000000 &"
b11001 /"
1#
#74000
0#
#75000
b10000000000000 '"
b1000000000000 &"
b11010 /"
b11011 T
1#
#76000
0#
#77000
b100000000000000 '"
b11100 T
b10000000000000 &"
b11011 /"
1#
#78000
0#
#79000
b1000000000000000 '"
b100000000000000 &"
b11100 /"
b11101 T
1#
#80000
0#
#81000
b10000000000000000 '"
b11110 T
b1000000000000000 &"
b11101 /"
1#
#82000
0#
#83000
b1 ,"
b0 '"
b10000000000000000 &"
b11110 /"
b11111 T
1#
#84000
0#
#85000
b10 ,"
b100000 T
b0 &"
b1 +"
b11111 /"
1#
#86000
0#
#87000
b100 ,"
b10 +"
b100000 /"
b100001 T
1#
#88000
0#
#89000
b1000 ,"
b100010 T
b100 +"
b100001 /"
1#
#90000
0#
#91000
b10000 ,"
b1000 +"
b100010 /"
b100011 T
1#
#92000
0#
#93000
b100000 ,"
b100100 T
b10000 +"
b100011 /"
1#
#94000
0#
#95000
b1000000 ,"
b100000 +"
b100100 /"
b100101 T
1#
#96000
0#
#97000
b10000000 ,"
b100110 T
b1000000 +"
b100101 /"
1#
#98000
0#
#99000
b100000000 ,"
b10000000 +"
b100110 /"
b100111 T
1#
#100000
0#
#101000
b1000000000 ,"
b101000 T
b100000000 +"
b100111 /"
1#
#102000
0#
#103000
b10000000000 ,"
b1000000000 +"
b101000 /"
b101001 T
1#
#104000
0#
#105000
b100000000000 ,"
b101010 T
b10000000000 +"
b101001 /"
1#
#106000
0#
#107000
b1000000000000 ,"
b100000000000 +"
b101010 /"
b101011 T
1#
#108000
0#
#109000
b10000000000000 ,"
b101100 T
b1000000000000 +"
b101011 /"
1#
#110000
0#
#111000
b100000000000000 ,"
b10000000000000 +"
b101100 /"
b101101 T
1#
#112000
0#
#113000
b1000000000000000 ,"
b101110 T
b100000000000000 +"
b101101 /"
1#
#114000
0#
#115000
b10000000000000000 ,"
b1000000000000000 +"
b101110 /"
0M
1:
1#
#116000
0#
#117000
b10000000000000000 s
b100000000000000000 r
b100000000000000000 {
b100000000000000000 }
b1 >
b10000000000000000 u
b10000000000000000 |
b10000000000000000 -"
0("
1q
1#
#118000
0#
#119000
b1 y
b10 >
1#
#120000
0#
#121000
b1 U
b1 D
b11 >
b10 y
1#
#122000
0#
#123000
b11 y
b0 >
b110101001000010100111 9
b110101001000010100111 V
1#
#124000
0#
#125000
b1 >
b100 y
1#
#126000
0#
#127000
b101 y
b10 >
1#
#128000
0#
#129000
b10 U
b10 D
b11 >
b110 y
1#
#130000
0#
#131000
b111 y
b0 >
b11100000100101000111 9
b11100000100101000111 V
1#
#132000
0#
#133000
b1 >
b1000 y
1#
#134000
0#
#135000
b1001 y
b10 >
1#
#136000
0#
#137000
b11 U
b11 D
b11 >
b1010 y
1#
#138000
0#
#139000
b1011 y
b0 >
b1110010000000000001 9
b1110010000000000001 V
1#
#140000
0#
#141000
b1 >
b1100 y
1#
#142000
0#
#143000
b1101 y
b10 >
1#
#144000
0#
#145000
b100 U
b100 D
b11 >
b1110 y
1#
#146000
0#
#147000
b1111 y
b0 >
b111001001110001010 9
b111001001110001010 V
1#
#148000
0#
#149000
b1 >
b10000 y
1#
#150000
0#
#151000
b10001 y
b10 >
1#
#152000
0#
#153000
b101 U
b101 D
b11 >
b10010 y
1#
#154000
0#
#155000
b10011 y
b0 >
b11100101000110111 9
b11100101000110111 V
1#
#156000
0#
#157000
b1 >
b10100 y
1#
#158000
0#
#159000
b10101 y
b10 >
1#
#160000
0#
#161000
b110 U
b110 D
b11 >
1(
b10000000000000000 /
b10000000000000000 w
1#
#162000
0#
#163000
b10000000000000000 ]
b0 >
b10000000000000000 0
b10000000000000000 \
15
b1110010100101010 9
b1110010100101010 V
1#
#164000
0#
#165000
b0 g
b1 >
1c
b0 j
b10000000000000000 e
1#
#166000
0#
#167000
b1 j
b10 >
1#
#168000
0#
#169000
b111 U
b111 D
b11 >
b10 j
1#
#170000
0#
#171000
b11 j
b0 >
b111001010010110 9
b111001010010110 V
1#
#172000
0#
#173000
b1 >
b100 j
1#
#174000
0#
#175000
b101 j
b10 >
1#
#176000
0#
#177000
b1000 U
b1000 D
b11 >
b110 j
1#
#178000
0#
#179000
b111 j
b0 >
b11100101001011 9
b11100101001011 V
1#
#180000
0#
#181000
b1 >
b1000 j
1#
#182000
0#
#183000
b1001 j
b10 >
1#
#184000
0#
#185000
b1001 U
b1001 D
b11 >
b1010 j
1#
#186000
0#
#187000
b1011 j
b0 >
b1110010100101 9
b1110010100101 V
1#
#188000
0#
#189000
b1 >
b1100 j
1#
#190000
0#
#191000
b1101 j
b10 >
1#
#192000
0#
#193000
b1010 U
b1010 D
b11 >
b1110 j
1#
#194000
0#
#195000
b1111 j
b0 >
b111001010010 9
b111001010010 V
1#
#196000
0#
#197000
b1 >
b10000 j
1#
#198000
0#
#199000
b10001 j
b10 >
1#
#200000
0#
#201000
b1011 U
b1011 D
b11 >
b10010 j
1#
#202000
0#
#203000
b10011 j
b0 >
b11100101001 9
b11100101001 V
1#
#204000
0#
#205000
b1 >
b10100 j
1#
#206000
0#
#207000
b10101 j
b10 >
1#
#208000
0#
#209000
b1100 U
b1100 D
b11 >
b10110 j
1#
#210000
0#
#211000
b10111 j
b0 >
b1110010100 9
b1110010100 V
1#
#212000
0#
#213000
b1 >
b11000 j
1#
#214000
0#
#215000
b11001 j
b10 >
1#
#216000
0#
#217000
b1101 U
b1101 D
b11 >
b11010 j
1#
#218000
0#
#219000
b11011 j
b0 >
b111001010 9
b111001010 V
1#
#220000
0#
#221000
b1 >
b11100 j
1#
#222000
0#
#223000
b11101 j
b10 >
1#
#224000
0#
#225000
b1110 U
b1110 D
b11 >
b11110 j
1#
#226000
0#
#227000
b11111 j
b0 >
b11100101 9
b11100101 V
1#
#228000
0#
#229000
b1 >
b100000 j
1#
#230000
0#
#231000
b100001 j
b10 >
1#
#232000
0#
#233000
b1111 U
b1111 D
b11 >
b100010 j
1#
#234000
0#
#235000
b100011 j
b0 >
b1110010 9
b1110010 V
1#
#236000
0#
#237000
b1 >
b100100 j
1#
#238000
0#
#239000
b100101 j
b10 >
1#
#240000
0#
#241000
b10000 U
b10000 D
b11 >
b100110 j
1#
#242000
0#
#243000
b100111 j
b0 >
b111001 9
b111001 V
1#
#244000
0#
#245000
b1 >
b101000 j
1#
#246000
0#
#247000
b101001 j
b10 >
1#
#248000
0#
#249000
b10001 U
b10001 D
b11 >
b101010 j
1#
#250000
0#
#251000
b101011 j
b0 >
b11100 9
b11100 V
1#
#252000
0#
#253000
b1 >
b101100 j
1#
#254000
0#
#255000
b101101 j
b10 >
1#
#256000
0#
#257000
b10010 U
b10010 D
b11 >
b101110 j
1#
#258000
0#
#259000
0c
1)
b0 >
b1110 9
b1110 V
1#
#260000
0#
#261000
14
b1 >
1#
#262000
0#
#263000
b10 >
1#
#264000
0#
#265000
b10011 U
b10011 D
b11 >
1#
#266000
0#
#267000
b0 >
b111 9
b111 V
1#
#268000
0#
#269000
b1 >
1#
#270000
0#
#271000
b10 >
1#
#272000
0#
#273000
b10100 U
b10100 D
b11 >
1#
#274000
0#
#275000
1*
b0 >
b100 9
b100 V
1#
#276000
0#
#277000
b0 !
b0 7
1"
13
1#
