arctan_tb.vcd
$date
	Sat Jul 01 20:07:59 2023
$end
$version
	Icarus Verilog
$end
$timescale
	1ps
$end
$scope module arctan_tb $end
$var wire 32 ! xita [31:0] $end
$var wire 1 " valid $end
$var parameter 32 # K $end
$var reg 1 $ clk $end
$var reg 1 % rst_n $end
$var reg 32 & tan [31:0] $end
$scope module arctan_dut $end
$var wire 1 $ clk $end
$var wire 1 % rst_n $end
$var wire 32 ' tan [31:0] $end
$var wire 32 ( xita_c [31:0] $end
$var wire 1 ) valid_div $end
$var wire 32 * tan_c [31:0] $end
$var wire 32 + tan_abs [31:0] $end
$var parameter 32 , K $end
$var reg 2 - cnt [1:0] $end
$var reg 32 . tan_abs_reg [31:0] $end
$var reg 1 " valid $end
$var reg 32 / x [31:0] $end
$var reg 32 0 xita [31:0] $end
$var reg 32 1 y [31:0] $end
$var reg 32 2 z [31:0] $end
$var integer 32 3 i [31:0] $end
$scope module qdiv_dut $end
$var wire 1 $ clk $end
$var wire 32 4 dividend [31:0] $end
$var wire 32 5 divisor [31:0] $end
$var wire 1 % rst_n $end
$var parameter 32 6 FBITS $end
$var parameter 32 7 WIDTH $end
$var reg 32 8 acc [31:0] $end
$var reg 32 9 acc_next [31:0] $end
$var reg 1 : busy $end
$var reg 31 ; dividend_reg [30:0] $end
$var reg 31 < divisor_reg [30:0] $end
$var reg 31 = quo [30:0] $end
$var reg 31 > quo_next [30:0] $end
$var reg 32 ? quotient [31:0] $end
$var reg 1 ) valid $end
$var reg 1 @ warn $end
$var integer 32 A i [31:0] $end
$upscope $end
$scope module xita_tan_lut_dut $end
$var wire 1 $ clk $end
$var wire 5 B i [4:0] $end
$var reg 32 C xita [31:0] $end
$upscope $end
$upscope $end
$upscope $end
$enddefinitions $end
$comment Show the parameter values. $end
$dumpall
b11111 7
b10000 6
b1001101101110100 ,
b1001101101110100 #
$end
#0
$dumpvars
bx C
b0 B
b0 A
x@
bx ?
bx >
bx =
bx <
bx ;
x:
bx 9
bx 8
bx 5
bx 4
b0 3
bx 2
bx 1
bx 0
bx /
bx .
bx -
b0xxxxxxxxxxxxxxxxxxxxxxxxxxxxxxx +
bx *
x)
bx (
bx '
bx &
1%
0$
x"
bx !
$end
#1000
1$
#2000
b1 A
b0 -
b0xxxxxxxxxxxxxxxxxxxxxxxxxxxxxxx .
b1011010000000000000000 (
b1011010000000000000000 C
0$
#3000
1$
#4000
b10 A
0$
#5000
1$
#6000
b11 A
0$
#7000
1$
#8000
b100 A
0$
#9000
1$
#10000
b1 >
b0 9
b0 =
b0 8
0@
0)
b0 *
b0 ?
b0 <
b0 ;
0"
b0 2
b0 1
b0 4
b1001101101110100 /
b1001101101110100 5
0$
0%
#11000
1$
#12000
0$
#13000
1$
#14000
0$
#15000
1$
#16000
0$
#17000
1$
#18000
0$
#19000
1$
#20000
b0 >
b10000000000000000 .
1:
b0 A
b1001101101110100 <
b10000000000000000 +
0$
b10000000000000000 &
b10000000000000000 '
1%
#21000
1$
#22000
b1 A
0$
#23000
1$
#24000
b10 A
0$
#25000
1$
#26000
b11 A
0$
#27000
1$
#28000
b100 A
0$
#29000
1$
#30000
b101 A
0$
#31000
1$
#32000
b110 A
0$
#33000
1$
#34000
b111 A
0$
#35000
1$
#36000
b1000 A
0$
#37000
1$
#38000
b1001 A
0$
#39000
1$
#40000
b1010 A
0$
#41000
1$
#42000
b1011 A
0$
#43000
1$
#44000
b1100 A
0$
#45000
1$
#46000
b1101 A
0$
#47000
1$
#48000
b1110 A
0$
#49000
1$
#50000
b1111 A
0$
#51000
1$
#52000
b10000 A
0$
#53000
1$
#54000
b10001 A
0$
#55000
1$
#56000
b10010 A
0$
#57000
1$
#58000
b10011 A
0$
#59000
1$
#60000
b10100 A
0$
#61000
1$
#62000
b10101 A
0$
#63000
1$
#64000
b10110 A
0$
#65000
1$
#66000
b10111 A
0$
#67000
1$
#68000
b11000 A
0$
#69000
1$
#70000
b11001 A
0$
#71000
1$
#72000
b11010 A
0$
#73000
1$
#74000
b11011 A
0$
#75000
1$
#76000
b11100 A
0$
#77000
1$
#78000
b11101 A
0$
#79000
1$
#80000
b11110 A
0$
#81000
1$
#82000
b11111 A
0$
#83000
1$
#84000
b100000 A
0$
#85000
1$
#86000
b100001 A
0$
#87000
1$
#88000
b100010 A
0$
#89000
1$
#90000
b100011 A
0$
#91000
1$
#92000
b100100 A
0$
#93000
1$
#94000
b100101 A
0$
#95000
1$
#96000
b100110 A
0$
#97000
1$
#98000
b100111 A
0$
#99000
1$
#100000
b101000 A
0$
#101000
1$
#102000
b101001 A
0$
#103000
1$
#104000
b101010 A
0$
#105000
1$
#106000
b101011 A
0$
#107000
1$
#108000
b101100 A
0$
#109000
1$
#110000
b101101 A
0$
#111000
1$
#112000
b101110 A
0$
#113000
1$
#114000
0:
1)
0$
#115000
1$
#116000
b1 -
0$
#117000
1$
#118000
b10 -
0$
#119000
1$
#120000
b1 B
b1011010000000000000000 2
b1001101101110100 1
b1001101101110100 4
b1 3
b11 -
0$
#121000
1$
#122000
b100110110111010000 >
1:
b10011011011101000 =
0)
b0 A
b1001101101110100 ;
b0 -
b110101001000010100111 (
b110101001000010100111 C
0$
#123000
1$
#124000
b1001101101110100000 >
b100110110111010000 =
b1 A
0$
#125000
1$
#126000
b10011011011101000000 >
b1001101101110100000 =
b10 A
0$
#127000
1$
#128000
b100110110111010000000 >
b10011011011101000000 =
b11 A
0$
#129000
1$
#130000
b1001101101110100000000 >
b100110110111010000000 =
b100 A
0$
#131000
1$
#132000
b10011011011101000000000 >
b1001101101110100000000 =
b101 A
0$
#133000
1$
#134000
b100110110111010000000000 >
b10011011011101000000000 =
b110 A
0$
#135000
1$
#136000
b1001101101110100000000000 >
b100110110111010000000000 =
b111 A
0$
#137000
1$
#138000
b10011011011101000000000000 >
b1001101101110100000000000 =
b1000 A
0$
#139000
1$
#140000
b100110110111010000000000000 >
b10011011011101000000000000 =
b1001 A
0$
#141000
1$
#142000
b1001101101110100000000000000 >
b100110110111010000000000000 =
b1010 A
0$
#143000
1$
#144000
b10011011011101000000000000000 >
b1001101101110100000000000000 =
b1011 A
0$
#145000
1$
#146000
b100110110111010000000000000000 >
b10011011011101000000000000000 =
b1100 A
0$
#147000
1$
#148000
b1001101101110100000000000000000 >
b100110110111010000000000000000 =
b1101 A
0$
#149000
1$
#150000
b1 9
b11011011101000000000000000000 >
b1001101101110100000000000000000 =
b1110 A
0$
#151000
1$
#152000
b10 9
b110110111010000000000000000000 >
b1 8
b11011011101000000000000000000 =
b1111 A
0$
#153000
1$
#154000
b100 9
b1101101110100000000000000000000 >
b10 8
b110110111010000000000000000000 =
b10000 A
0$
#155000
1$
#156000
b1001 9
b1011011101000000000000000000000 >
b100 8
b1101101110100000000000000000000 =
b10001 A
0$
#157000
1$
#158000
b10011 9
b110111010000000000000000000000 >
b1001 8
b1011011101000000000000000000000 =
b10010 A
0$
#159000
1$
#160000
b100110 9
b1101110100000000000000000000000 >
b10011 8
b110111010000000000000000000000 =
b10011 A
0$
#161000
1$
#162000
b1001101 9
b1011101000000000000000000000000 >
b100110 8
b1101110100000000000000000000000 =
b10100 A
0$
#163000
1$
#164000
b10011011 9
b111010000000000000000000000000 >
b1001101 8
b1011101000000000000000000000000 =
b10101 A
0$
#165000
1$
#166000
b100110110 9
b1110100000000000000000000000000 >
b10011011 8
b111010000000000000000000000000 =
b10110 A
0$
#167000
1$
#168000
b1001101101 9
b1101000000000000000000000000000 >
b100110110 8
b1110100000000000000000000000000 =
b10111 A
0$
#169000
1$
#170000
b10011011011 9
b1010000000000000000000000000000 >
b1001101101 8
b1101000000000000000000000000000 =
b11000 A
0$
#171000
1$
#172000
b100110110111 9
b100000000000000000000000000000 >
b10011011011 8
b1010000000000000000000000000000 =
b11001 A
0$
#173000
1$
#174000
b1001101101110 9
b1000000000000000000000000000000 >
b100110110111 8
b100000000000000000000000000000 =
b11010 A
0$
#175000
1$
#176000
b10011011011101 9
b0 >
b1001101101110 8
b1000000000000000000000000000000 =
b11011 A
0$
#177000
1$
#178000
b100110110111010 9
b10011011011101 8
b0 =
b11100 A
0$
#179000
1$
#180000
b1001101101110100 9
b100110110111010 8
b11101 A
0$
#181000
1$
#182000
b1 >
b0 9
b1001101101110100 8
b11110 A
0$
#183000
1$
#184000
b10 >
b0 8
b1 =
b11111 A
0$
#185000
1$
#186000
b100 >
b10 =
b100000 A
0$
#187000
1$
#188000
b1000 >
b100 =
b100001 A
0$
#189000
1$
#190000
b10000 >
b1000 =
b100010 A
0$
#191000
1$
#192000
b100000 >
b10000 =
b100011 A
0$
#193000
1$
#194000
b1000000 >
b100000 =
b100100 A
0$
#195000
1$
#196000
b10000000 >
b1000000 =
b100101 A
0$
#197000
1$
#198000
b100000000 >
b10000000 =
b100110 A
0$
#199000
1$
#200000
b1000000000 >
b100000000 =
b100111 A
0$
#201000
1$
#202000
b10000000000 >
b1000000000 =
b101000 A
0$
#203000
1$
#204000
b100000000000 >
b10000000000 =
b101001 A
0$
#205000
1$
#206000
b1000000000000 >
b100000000000 =
b101010 A
0$
#207000
1$
#208000
b10000000000000 >
b1000000000000 =
b101011 A
0$
#209000
1$
#210000
b100000000000000 >
b10000000000000 =
b101100 A
0$
#211000
1$
#212000
b1000000000000000 >
b100000000000000 =
b101101 A
0$
#213000
1$
#214000
b10000000000000000 >
b1000000000000000 =
b101110 A
0$
#215000
1$
#216000
0:
b10000000000000000 *
b10000000000000000 ?
1)
0$
#217000
1$
#218000
b1 -
0$
#219000
1$
#220000
b10 -
0$
#221000
1$
#222000
b10 B
b10 3
b11 -
0$
#223000
1$
#224000
b0 -
b11100000100101000111 (
b11100000100101000111 C
0$
#225000
1$
#226000
b1 -
0$
#227000
1$
#228000
b10 -
0$
#229000
1$
#230000
b11 B
b11 3
b11 -
0$
#231000
1$
#232000
b0 -
b1110010000000000001 (
b1110010000000000001 C
0$
#233000
1$
#234000
b1 -
0$
#235000
1$
#236000
b10 -
0$
#237000
1$
#238000
b100 B
b100 3
b11 -
0$
#239000
1$
#240000
b0 -
b111001001110001010 (
b111001001110001010 C
0$
#241000
1$
#242000
b1 -
0$
#243000
1$
#244000
b10 -
0$
#245000
1$
#246000
b101 B
b101 3
b11 -
0$
#247000
1$
#248000
b0 -
b11100101000110111 (
b11100101000110111 C
0$
#249000
1$
#250000
b1 -
0$
#251000
1$
#252000
b10 -
0$
#253000
1$
#254000
b110 B
b110 3
b11 -
0$
#255000
1$
#256000
b0 -
b1110010100101010 (
b1110010100101010 C
0$
#257000
1$
#258000
b1 -
0$
#259000
1$
#260000
b10 -
0$
#261000
1$
#262000
b111 B
b111 3
b11 -
0$
#263000
1$
#264000
b0 -
b111001010010110 (
b111001010010110 C
0$
#265000
1$
#266000
b1 -
0$
#267000
1$
#268000
b10 -
0$
#269000
1$
#270000
b1000 B
b1000 3
b11 -
0$
#271000
1$
#272000
b0 -
b11100101001011 (
b11100101001011 C
0$
#273000
1$
#274000
b1 -
0$
#275000
1$
#276000
b10 -
0$
#277000
1$
#278000
b1001 B
b1001 3
b11 -
0$
#279000
1$
#280000
b0 -
b1110010100101 (
b1110010100101 C
0$
#281000
1$
#282000
b1 -
0$
#283000
1$
#284000
b10 -
0$
#285000
1$
#286000
b1010 B
b1010 3
b11 -
0$
#287000
1$
#288000
b0 -
b111001010010 (
b111001010010 C
0$
#289000
1$
#290000
b1 -
0$
#291000
1$
#292000
b10 -
0$
#293000
1$
#294000
b1011 B
b1011 3
b11 -
0$
#295000
1$
#296000
b0 -
b11100101001 (
b11100101001 C
0$
#297000
1$
#298000
b1 -
0$
#299000
1$
#300000
b10 -
0$
#301000
1$
#302000
b1100 B
b1100 3
b11 -
0$
#303000
1$
#304000
b0 -
b1110010100 (
b1110010100 C
0$
#305000
1$
#306000
b1 -
0$
#307000
1$
#308000
b10 -
0$
#309000
1$
#310000
b1101 B
b1101 3
b11 -
0$
#311000
1$
#312000
b0 -
b111001010 (
b111001010 C
0$
#313000
1$
#314000
b1 -
0$
#315000
1$
#316000
b10 -
0$
#317000
1$
#318000
b1110 B
b1110 3
b11 -
0$
#319000
1$
#320000
b0 -
b11100101 (
b11100101 C
0$
#321000
1$
#322000
b1 -
0$
#323000
1$
#324000
b10 -
0$
#325000
1$
#326000
b1111 B
b1111 3
b11 -
0$
#327000
1$
#328000
b0 -
b1110010 (
b1110010 C
0$
#329000
1$
#330000
b1 -
0$
#331000
1$
#332000
b10 -
0$
#333000
1$
#334000
b10000 B
b10000 3
b11 -
0$
#335000
1$
#336000
b0 -
b111001 (
b111001 C
0$
#337000
1$
#338000
b1 -
0$
#339000
1$
#340000
b10 -
0$
#341000
1$
#342000
b10001 B
b10001 3
b11 -
0$
#343000
1$
#344000
b0 -
b11100 (
b11100 C
0$
#345000
1$
#346000
b1 -
0$
#347000
1$
#348000
b10 -
0$
#349000
1$
#350000
b10010 B
b10010 3
b11 -
0$
#351000
1$
#352000
b0 -
b1110 (
b1110 C
0$
#353000
1$
#354000
b1 -
0$
#355000
1$
#356000
b10 -
0$
#357000
1$
#358000
b10011 B
b10011 3
b11 -
0$
#359000
1$
#360000
b0 -
b111 (
b111 C
0$
#361000
1$
#362000
b1 -
0$
#363000
1$
#364000
b10 -
0$
#365000
1$
#366000
b10100 B
b10100 3
b11 -
0$
#367000
1$
#368000
b1011010000000000000000 !
b1011010000000000000000 0
1"
b0 -
b100 (
b100 C
0$
