arctan_tb.vcd
$date
	Fri Jul 07 17:36:08 2023
$end
$version
	Icarus Verilog
$end
$timescale
	1ps
$end
$scope module arctan_tb $end
$var wire 32 ! xita [31:0] $end
$var wire 1 " valid $end
$var parameter 32 # K $end
$var reg 1 $ clk $end
$var reg 1 % rst_n $end
$var reg 32 & tan [31:0] $end
$scope module arctan_dut $end
$var wire 1 $ clk $end
$var wire 1 % rst_n $end
$var wire 32 ' tan [31:0] $end
$var wire 32 ( xita_c [31:0] $end
$var wire 1 ) valid_div $end
$var wire 32 * tan_c [31:0] $end
$var wire 32 + tan_abs [31:0] $end
$var parameter 32 , K $end
$var reg 2 - cnt [1:0] $end
$var reg 32 . tan_abs_reg [31:0] $end
$var reg 1 " valid $end
$var reg 32 / x [31:0] $end
$var reg 32 0 xita [31:0] $end
$var reg 32 1 y [31:0] $end
$var reg 32 2 z [31:0] $end
$var integer 32 3 i [31:0] $end
$scope module qdiv_dut $end
$var wire 1 $ clk $end
$var wire 32 4 dividend [31:0] $end
$var wire 32 5 divisor [31:0] $end
$var wire 1 % rst_n $end
$var wire 31 6 divisor_unsigned [30:0] $end
$var wire 31 7 dividend_unsigned [30:0] $end
$var parameter 32 8 FBITS $end
$var parameter 32 9 WIDTH $end
$var reg 32 : acc [31:0] $end
$var reg 32 ; acc_next [31:0] $end
$var reg 1 < busy $end
$var reg 31 = dividend_reg [30:0] $end
$var reg 31 > divisor_reg [30:0] $end
$var reg 31 ? quo [30:0] $end
$var reg 31 @ quo_next [30:0] $end
$var reg 32 A quotient [31:0] $end
$var reg 1 ) valid $end
$var reg 1 B warn $end
$var integer 32 C i [31:0] $end
$upscope $end
$scope module xita_tan_lut_dut $end
$var wire 1 $ clk $end
$var wire 5 D i [4:0] $end
$var reg 32 E xita [31:0] $end
$upscope $end
$upscope $end
$upscope $end
$enddefinitions $end
$comment Show the parameter values. $end
$dumpall
b11111 9
b10000 8
b1001101101110100 ,
b1001101101110100 #
$end
#0
$dumpvars
bx E
b0 D
b0 C
xB
bx A
bx @
bx ?
bx >
bx =
x<
bx ;
bx :
bx 7
bx 6
bx 5
bx 4
b0 3
bx 2
bx 1
bx 0
bx /
bx .
bx -
b0xxxxxxxxxxxxxxxxxxxxxxxxxxxxxxx +
bx *
x)
bx (
bx '
bx &
1%
0$
x"
bx !
$end
#1000
b1 C
b0 -
b0xxxxxxxxxxxxxxxxxxxxxxxxxxxxxxx .
b1011010000000000000000 (
b1011010000000000000000 E
1$
#2000
0$
#3000
b10 C
1$
#4000
0$
#5000
b11 C
1$
#6000
0$
#7000
b100 C
1$
#8000
0$
#9000
b101 C
1$
#10000
b0 7
b1001101101110100 6
b1 @
b0 ;
b0 !
b0 0
b0 .
0"
b0 2
b0 1
b0 4
b1001101101110100 /
b1001101101110100 5
0<
b0 ?
b0 :
0B
0)
b0 *
b0 A
b0 >
b0 =
0$
0%
#11000
1$
#12000
0$
#13000
1$
#14000
0$
#15000
1$
#16000
0$
#17000
1$
#18000
0$
#19000
1$
#20000
b10000000000000000 +
0$
b10000000000000000 &
b10000000000000000 '
1%
#21000
b0 @
b10000000000000000 .
1<
b0 C
b1001101101110100 >
1$
#22000
0$
#23000
b1 C
1$
#24000
0$
#25000
b10 C
1$
#26000
0$
#27000
b11 C
1$
#28000
0$
#29000
b100 C
1$
#30000
0$
#31000
b101 C
1$
#32000
0$
#33000
b110 C
1$
#34000
0$
#35000
b111 C
1$
#36000
0$
#37000
b1000 C
1$
#38000
0$
#39000
b1001 C
1$
#40000
0$
#41000
b1010 C
1$
#42000
0$
#43000
b1011 C
1$
#44000
0$
#45000
b1100 C
1$
#46000
0$
#47000
b1101 C
1$
#48000
0$
#49000
b1110 C
1$
#50000
0$
#51000
b1111 C
1$
#52000
0$
#53000
b10000 C
1$
#54000
0$
#55000
b10001 C
1$
#56000
0$
#57000
b10010 C
1$
#58000
0$
#59000
b10011 C
1$
#60000
0$
#61000
b10100 C
1$
#62000
0$
#63000
b10101 C
1$
#64000
0$
#65000
b10110 C
1$
#66000
0$
#67000
b10111 C
1$
#68000
0$
#69000
b11000 C
1$
#70000
0$
#71000
b11001 C
1$
#72000
0$
#73000
b11010 C
1$
#74000
0$
#75000
b11011 C
1$
#76000
0$
#77000
b11100 C
1$
#78000
0$
#79000
b11101 C
1$
#80000
0$
#81000
b11110 C
1$
#82000
0$
#83000
b11111 C
1$
#84000
0$
#85000
b100000 C
1$
#86000
0$
#87000
b100001 C
1$
#88000
0$
#89000
b100010 C
1$
#90000
0$
#91000
b100011 C
1$
#92000
0$
#93000
b100100 C
1$
#94000
0$
#95000
b100101 C
1$
#96000
0$
#97000
b100110 C
1$
#98000
0$
#99000
b100111 C
1$
#100000
0$
#101000
b101000 C
1$
#102000
0$
#103000
b101001 C
1$
#104000
0$
#105000
b101010 C
1$
#106000
0$
#107000
b101011 C
1$
#108000
0$
#109000
b101100 C
1$
#110000
0$
#111000
b101101 C
1$
#112000
0$
#113000
b101110 C
1$
#114000
0$
#115000
0<
1)
1$
#116000
0$
#117000
b1 -
1$
#118000
0$
#119000
b10 -
1$
#120000
0$
#121000
b1001101101110100 7
b1 D
b1011010000000000000000 2
b1001101101110100 1
b1001101101110100 4
b1 3
b11 -
1$
#122000
0$
#123000
b100110110111010000 @
1<
b10011011011101000 ?
0)
b0 C
b1001101101110100 =
b0 -
b110101001000010100111 (
b110101001000010100111 E
1$
#124000
0$
#125000
b1001101101110100000 @
b100110110111010000 ?
b1 C
1$
#126000
0$
#127000
b10011011011101000000 @
b1001101101110100000 ?
b10 C
1$
#128000
0$
#129000
b100110110111010000000 @
b10011011011101000000 ?
b11 C
1$
#130000
0$
#131000
b1001101101110100000000 @
b100110110111010000000 ?
b100 C
1$
#132000
0$
#133000
b10011011011101000000000 @
b1001101101110100000000 ?
b101 C
1$
#134000
0$
#135000
b100110110111010000000000 @
b10011011011101000000000 ?
b110 C
1$
#136000
0$
#137000
b1001101101110100000000000 @
b100110110111010000000000 ?
b111 C
1$
#138000
0$
#139000
b10011011011101000000000000 @
b1001101101110100000000000 ?
b1000 C
1$
#140000
0$
#141000
b100110110111010000000000000 @
b10011011011101000000000000 ?
b1001 C
1$
#142000
0$
#143000
b1001101101110100000000000000 @
b100110110111010000000000000 ?
b1010 C
1$
#144000
0$
#145000
b10011011011101000000000000000 @
b1001101101110100000000000000 ?
b1011 C
1$
#146000
0$
#147000
b100110110111010000000000000000 @
b10011011011101000000000000000 ?
b1100 C
1$
#148000
0$
#149000
b1001101101110100000000000000000 @
b100110110111010000000000000000 ?
b1101 C
1$
#150000
0$
#151000
b1 ;
b11011011101000000000000000000 @
b1001101101110100000000000000000 ?
b1110 C
1$
#152000
0$
#153000
b10 ;
b110110111010000000000000000000 @
b1 :
b11011011101000000000000000000 ?
b1111 C
1$
#154000
0$
#155000
b100 ;
b1101101110100000000000000000000 @
b10 :
b110110111010000000000000000000 ?
b10000 C
1$
#156000
0$
#157000
b1001 ;
b1011011101000000000000000000000 @
b100 :
b1101101110100000000000000000000 ?
b10001 C
1$
#158000
0$
#159000
b10011 ;
b110111010000000000000000000000 @
b1001 :
b1011011101000000000000000000000 ?
b10010 C
1$
#160000
0$
#161000
b100110 ;
b1101110100000000000000000000000 @
b10011 :
b110111010000000000000000000000 ?
b10011 C
1$
#162000
0$
#163000
b1001101 ;
b1011101000000000000000000000000 @
b100110 :
b1101110100000000000000000000000 ?
b10100 C
1$
#164000
0$
#165000
b10011011 ;
b111010000000000000000000000000 @
b1001101 :
b1011101000000000000000000000000 ?
b10101 C
1$
#166000
0$
#167000
b100110110 ;
b1110100000000000000000000000000 @
b10011011 :
b111010000000000000000000000000 ?
b10110 C
1$
#168000
0$
#169000
b1001101101 ;
b1101000000000000000000000000000 @
b100110110 :
b1110100000000000000000000000000 ?
b10111 C
1$
#170000
0$
#171000
b10011011011 ;
b1010000000000000000000000000000 @
b1001101101 :
b1101000000000000000000000000000 ?
b11000 C
1$
#172000
0$
#173000
b100110110111 ;
b100000000000000000000000000000 @
b10011011011 :
b1010000000000000000000000000000 ?
b11001 C
1$
#174000
0$
#175000
b1001101101110 ;
b1000000000000000000000000000000 @
b100110110111 :
b100000000000000000000000000000 ?
b11010 C
1$
#176000
0$
#177000
b10011011011101 ;
b0 @
b1001101101110 :
b1000000000000000000000000000000 ?
b11011 C
1$
#178000
0$
#179000
b100110110111010 ;
b10011011011101 :
b0 ?
b11100 C
1$
#180000
0$
#181000
b1001101101110100 ;
b100110110111010 :
b11101 C
1$
#182000
0$
#183000
b1 @
b0 ;
b1001101101110100 :
b11110 C
1$
#184000
0$
#185000
b10 @
b0 :
b1 ?
b11111 C
1$
#186000
0$
#187000
b100 @
b10 ?
b100000 C
1$
#188000
0$
#189000
b1000 @
b100 ?
b100001 C
1$
#190000
0$
#191000
b10000 @
b1000 ?
b100010 C
1$
#192000
0$
#193000
b100000 @
b10000 ?
b100011 C
1$
#194000
0$
#195000
b1000000 @
b100000 ?
b100100 C
1$
#196000
0$
#197000
b10000000 @
b1000000 ?
b100101 C
1$
#198000
0$
#199000
b100000000 @
b10000000 ?
b100110 C
1$
#200000
0$
#201000
b1000000000 @
b100000000 ?
b100111 C
1$
#202000
0$
#203000
b10000000000 @
b1000000000 ?
b101000 C
1$
#204000
0$
#205000
b100000000000 @
b10000000000 ?
b101001 C
1$
#206000
0$
#207000
b1000000000000 @
b100000000000 ?
b101010 C
1$
#208000
0$
#209000
b10000000000000 @
b1000000000000 ?
b101011 C
1$
#210000
0$
#211000
b100000000000000 @
b10000000000000 ?
b101100 C
1$
#212000
0$
#213000
b1000000000000000 @
b100000000000000 ?
b101101 C
1$
#214000
0$
#215000
b10000000000000000 @
b1000000000000000 ?
b101110 C
1$
#216000
0$
#217000
b10000000000000000 *
b10000000000000000 A
0<
1)
1$
#218000
0$
#219000
b1 -
1$
#220000
0$
#221000
b10 -
1$
#222000
0$
#223000
b10 D
b10 3
b11 -
1$
#224000
0$
#225000
b0 -
b11100000100101000111 (
b11100000100101000111 E
1$
#226000
0$
#227000
b1 -
1$
#228000
0$
#229000
b10 -
1$
#230000
0$
#231000
b11 D
b11 3
b11 -
1$
#232000
0$
#233000
b0 -
b1110010000000000001 (
b1110010000000000001 E
1$
#234000
0$
#235000
b1 -
1$
#236000
0$
#237000
b10 -
1$
#238000
0$
#239000
b100 D
b100 3
b11 -
1$
#240000
0$
#241000
b0 -
b111001001110001010 (
b111001001110001010 E
1$
#242000
0$
#243000
b1 -
1$
#244000
0$
#245000
b10 -
1$
#246000
0$
#247000
b101 D
b101 3
b11 -
1$
#248000
0$
#249000
b0 -
b11100101000110111 (
b11100101000110111 E
1$
#250000
0$
#251000
b1 -
1$
#252000
0$
#253000
b10 -
1$
#254000
0$
#255000
b110 D
b110 3
b11 -
1$
#256000
0$
#257000
b0 -
b1110010100101010 (
b1110010100101010 E
1$
#258000
0$
#259000
b1 -
1$
#260000
0$
#261000
b10 -
1$
#262000
0$
#263000
b111 D
b111 3
b11 -
1$
#264000
0$
#265000
b0 -
b111001010010110 (
b111001010010110 E
1$
#266000
0$
#267000
b1 -
1$
#268000
0$
#269000
b10 -
1$
#270000
0$
#271000
b1000 D
b1000 3
b11 -
1$
#272000
0$
#273000
b0 -
b11100101001011 (
b11100101001011 E
1$
#274000
0$
#275000
b1 -
1$
#276000
0$
#277000
b10 -
1$
#278000
0$
#279000
b1001 D
b1001 3
b11 -
1$
#280000
0$
#281000
b0 -
b1110010100101 (
b1110010100101 E
1$
#282000
0$
#283000
b1 -
1$
#284000
0$
#285000
b10 -
1$
#286000
0$
#287000
b1010 D
b1010 3
b11 -
1$
#288000
0$
#289000
b0 -
b111001010010 (
b111001010010 E
1$
#290000
0$
#291000
b1 -
1$
#292000
0$
#293000
b10 -
1$
#294000
0$
#295000
b1011 D
b1011 3
b11 -
1$
#296000
0$
#297000
b0 -
b11100101001 (
b11100101001 E
1$
#298000
0$
#299000
b1 -
1$
#300000
0$
#301000
b10 -
1$
#302000
0$
#303000
b1100 D
b1100 3
b11 -
1$
#304000
0$
#305000
b0 -
b1110010100 (
b1110010100 E
1$
#306000
0$
#307000
b1 -
1$
#308000
0$
#309000
b10 -
1$
#310000
0$
#311000
b1101 D
b1101 3
b11 -
1$
#312000
0$
#313000
b0 -
b111001010 (
b111001010 E
1$
#314000
0$
#315000
b1 -
1$
#316000
0$
#317000
b10 -
1$
#318000
0$
#319000
b1110 D
b1110 3
b11 -
1$
#320000
0$
#321000
b0 -
b11100101 (
b11100101 E
1$
#322000
0$
#323000
b1 -
1$
#324000
0$
#325000
b10 -
1$
#326000
0$
#327000
b1111 D
b1111 3
b11 -
1$
#328000
0$
#329000
b0 -
b1110010 (
b1110010 E
1$
#330000
0$
#331000
b1 -
1$
#332000
0$
#333000
b10 -
1$
#334000
0$
#335000
b10000 D
b10000 3
b11 -
1$
#336000
0$
#337000
b0 -
b111001 (
b111001 E
1$
#338000
0$
#339000
b1 -
1$
#340000
0$
#341000
b10 -
1$
#342000
0$
#343000
b10001 D
b10001 3
b11 -
1$
#344000
0$
#345000
b0 -
b11100 (
b11100 E
1$
#346000
0$
#347000
b1 -
1$
#348000
0$
#349000
b10 -
1$
#350000
0$
#351000
b10010 D
b10010 3
b11 -
1$
#352000
0$
#353000
b0 -
b1110 (
b1110 E
1$
#354000
0$
#355000
b1 -
1$
#356000
0$
#357000
b10 -
1$
#358000
0$
#359000
b10011 D
b10011 3
b11 -
1$
#360000
0$
#361000
b0 -
b111 (
b111 E
1$
#362000
0$
#363000
b1 -
1$
#364000
0$
#365000
b10 -
1$
#366000
0$
#367000
b10100 D
b10100 3
b11 -
1$
#368000
0$
#369000
b1011010000000000000000 !
b1011010000000000000000 0
1"
b0 -
b100 (
b100 E
1$
